Ozone activity
…
readr is a core member of the tidyverse. It is loaded everytime you call library("tidyverse").

Sample data

A sample data set to import, nimbus.csv, can be dowloaded from the course website. The data set contains atmospheric ozone measurements of the southern hemisphere collected by NASAs NIMBUS-7 satellite in October 1985. The data set is of historical interest because it displays evidence of the hole in the ozone layer collected shortly after the hole was first reported.

Importing Data

To import nimbus.csv, use the readr functions that reads .csv files, read_csv(). Set the first argument of read_csv() to a character string: the filepath from your working directory to the nimbus.csv file.

Problem 1: Reading the file

Use the read_csv() and here() functions to read the nimbus.csv file on your computer into an object called nimbus. Then view the results.

## # A tibble: 18,963 x 4
##    date                longitude latitude ozone
##    <dttm>                  <dbl>    <dbl> <chr>
##  1 1985-10-01 00:00:00      70.6    -73.5 .    
##  2 1985-10-01 00:00:00      71.9    -73.5 .    
##  3 1985-10-01 00:00:00      73.1    -73.5 .    
##  4 1985-10-01 00:00:00      74.4    -73.5 .    
##  5 1985-10-01 00:00:00      75.6    -73.5 .    
##  6 1985-10-01 00:00:00      76.9    -73.5 .    
##  7 1985-10-01 00:00:00      78.1    -73.5 .    
##  8 1985-10-01 00:00:00      79.4    -73.5 .    
##  9 1985-10-01 00:00:00      65.6    -72.5 .    
## 10 1985-10-01 00:00:00      66.9    -72.5 .    
## #  with 18,953 more rows

Problem 2: Parsing NA values

If you examine nimbus closely, you will notice that the initial values in the ozone column are .. Can you guess what . stands for? The compilers of the nimbus data set used . to denote a missing value. In other words, they used . in the same way that R uses the NA value.

If youd like R to treat these . values as missing values (and you should) you will need to convert them to NAs. One way to do this is to ask read_csv() to parse . values as NA values when it reads in the data. To do this add the argument na = "." to read_csv():

## # A tibble: 18,963 x 4
##    date                longitude latitude ozone
##    <dttm>                  <dbl>    <dbl> <dbl>
##  1 1985-10-01 00:00:00      70.6    -73.5    NA
##  2 1985-10-01 00:00:00      71.9    -73.5    NA
##  3 1985-10-01 00:00:00      73.1    -73.5    NA
##  4 1985-10-01 00:00:00      74.4    -73.5    NA
##  5 1985-10-01 00:00:00      75.6    -73.5    NA
##  6 1985-10-01 00:00:00      76.9    -73.5    NA
##  7 1985-10-01 00:00:00      78.1    -73.5    NA
##  8 1985-10-01 00:00:00      79.4    -73.5    NA
##  9 1985-10-01 00:00:00      65.6    -72.5    NA
## 10 1985-10-01 00:00:00      66.9    -72.5    NA
## #  with 18,953 more rows

You can set na to a single character string or a vector of character strings. read_csv() will transform every value listed in the na argument to an NA when it reads in the data.

Problem 3: Specifying column types

If you run the code above and examine the results, you may now notice a new concern about the ozone column. The column has been parsed as character strings instead of numbers.

When you use read_csv(), read_csv() tries to match each column of input to one of the basic data types in R. read_csv() generally does a good job, but here the initial presence of the character strings . caused read_csv() to misidentify the contents of the ozone column. You could correct this manually with Rs as.numeric() function, or you could read the data in again, this time instructing read_csv() to parse the column as numbers.

To do this, add the argument col_types to read.csv() and set it equal to a list. Add a named element to the list for each column you would like to manually parse. The name of the element should match the name of the column you wish to parse.

So for example, if we wish to do something foolish and parse the date column into text string rather than a date, we could force readr to do so like this:

## # A tibble: 18,963 x 4
##    date                 longitude latitude ozone
##    <chr>                    <dbl>    <dbl> <chr>
##  1 1985-10-01T00:00:00Z      70.6    -73.5 .    
##  2 1985-10-01T00:00:00Z      71.9    -73.5 .    
##  3 1985-10-01T00:00:00Z      73.1    -73.5 .    
##  4 1985-10-01T00:00:00Z      74.4    -73.5 .    
##  5 1985-10-01T00:00:00Z      75.6    -73.5 .    
##  6 1985-10-01T00:00:00Z      76.9    -73.5 .    
##  7 1985-10-01T00:00:00Z      78.1    -73.5 .    
##  8 1985-10-01T00:00:00Z      79.4    -73.5 .    
##  9 1985-10-01T00:00:00Z      65.6    -72.5 .    
## 10 1985-10-01T00:00:00Z      66.9    -72.5 .    
## #  with 18,953 more rows
…
col_number()
numbers mixed with non-number characters

col_numeric()
double or integer

col_skip()
do not read this column

col_time()
time

In our case, we would use the col_double() function to ensure that ozone is read a as number of type double.

## # A tibble: 18,963 x 4
##    date                longitude latitude ozone
##    <dttm>                  <dbl>    <dbl> <dbl>
##  1 1985-10-01 00:00:00      70.6    -73.5    NA
##  2 1985-10-01 00:00:00      71.9    -73.5    NA
##  3 1985-10-01 00:00:00      73.1    -73.5    NA
##  4 1985-10-01 00:00:00      74.4    -73.5    NA
##  5 1985-10-01 00:00:00      75.6    -73.5    NA
##  6 1985-10-01 00:00:00      76.9    -73.5    NA
##  7 1985-10-01 00:00:00      78.1    -73.5    NA
##  8 1985-10-01 00:00:00      79.4    -73.5    NA
##  9 1985-10-01 00:00:00      65.6    -72.5    NA
## 10 1985-10-01 00:00:00      66.9    -72.5    NA
## #  with 18,953 more rows
…
